%YAML 1.1
%TAG !u! tag:unity3d.com,2011:
--- !u!78 &1
TagManager:
  serializedVersion: 2
  tags:
  - BackGround
  - Enemies
  layers:
  - Default
  - TransparentFX
  - Ignore Raycast
  - 
  - Water
  - UI
  - 
  - 
  - Player
  - Enemies
  - Bullet
  - EnemiesBullet
  - 
  - 
  - 
  - 
  - 
  - 
  - 
  - 
  - 
  - 
  - 
  - 
  - 
  - 
  - 
  - 
  - 
  - 
  - 
  - 
  m_SortingLayers:
  - name: Back
    uniqueID: 3202284187
    locked: 0
  - name: Mid
    uniqueID: 1746706173
    locked: 0
  - name: Default
    uniqueID: 0
    locked: 0
